{
  "utime": 0.00016055000000000027,
  "stime": 0.00016699999999999997,
  "cutime": 0.5449686,
  "cstime": 0.014077000000000001,
  "real": 0.5568992867500129,
  "label": "/home/erwan/dev/projects/ugp/ruby/ugp.rb --format \\<prefix\\>\\<branch\\>\\<behind\\>\\<ahead\\>\\<separator\\>\\<index\\>\\<unmerged\\>\\<worktree\\>\\<untracked\\>\\<clean\\>\\<suffix\\> --reset \\∅ --prefix \\( --suffix \\) --branch \\≡ --behind \\↓ --ahead \\↑ --separator \\| --index \\● --unmerged \\✖ --worktree \\✚ --untracked \\∗ --clean \\✔",
  "timestamp": "2020-02-11T13:26:37Z"
}