{
  "utime": 0.00033240000000000006,
  "stime": 0.0,
  "cutime": 0.024949000000000002,
  "cstime": 0.006371049999999999,
  "real": 0.027777102100026242,
  "label": "/home/erwan/dev/projects/ugp/go/ugp --format \\<prefix\\>\\<branch\\>\\<behind\\>\\<ahead\\>\\<separator\\>\\<index\\>\\<unmerged\\>\\<worktree\\>\\<untracked\\>\\<clean\\>\\<suffix\\> --reset \\∅ --prefix \\( --suffix \\) --branch \\≡ --behind \\↓ --ahead \\↑ --separator \\| --index \\● --unmerged \\✖ --worktree \\✚ --untracked \\∗ --clean \\✔",
  "timestamp": "2020-02-17T21:23:27Z"
}